C:\Users\Dasaenz\eclipse-workspace\testRappiCore\src\com\test\rest\service\ApplicationConfig.java
C:\Users\Dasaenz\eclipse-workspace\testRappiCore\src\com\test\backend\utils\TipoOperacion.java
C:\Users\Dasaenz\eclipse-workspace\testRappiCore\src\com\test\rest\pojo\InfoMatriz.java
C:\Users\Dasaenz\eclipse-workspace\testRappiCore\src\com\test\rest\pojo\InputMatriz.java
C:\Users\Dasaenz\eclipse-workspace\testRappiCore\src\com\test\rest\service\MatrizService.java
C:\Users\Dasaenz\eclipse-workspace\testRappiCore\src\com\test\backend\utils\StringUtils.java
C:\Users\Dasaenz\eclipse-workspace\testRappiCore\src\com\test\rest\pojo\OperacionMatriz.java
C:\Users\Dasaenz\eclipse-workspace\testRappiCore\src\com\test\backend\converter\InfoConverter.java
C:\Users\Dasaenz\eclipse-workspace\testRappiCore\src\com\test\backend\exception\MatrizException.java
C:\Users\Dasaenz\eclipse-workspace\testRappiCore\src\com\test\backend\utils\OperacionesUtils.java
